<?xml version="1.0" encoding="UTF-8" standalone="no"?>
<!-- Generator: Adobe Illustrator 14.0.0, SVG Export Plug-In . SVG Version: 6.00 Build 43363)  -->
<svg id="svg2" xmlns:rdf="http://www.w3.org/1999/02/22-rdf-syntax-ns#" xmlns="http://www.w3.org/2000/svg" version="1.1" xml:space="preserve" height="150" width="300" enable-background="new 0 0 566.93 283.46" y="0px" x="0px" xmlns:cc="http://creativecommons.org/ns#" xmlns:dc="http://purl.org/dc/elements/1.1/" viewBox="0 0 300 150.00001"><defs id="defs70"><clipPath id="clipPath4350" clipPathUnits="userSpaceOnUse"><path id="path4352" d="m16.605 14.598c0-0.539-2.378-0.973-5.316-0.973-2.934 0-5.312 0.434-5.312 0.973s2.378 0.972 5.312 0.972c2.938 0 5.316-0.433 5.316-0.972z"/></clipPath><linearGradient id="linearGradient4356" x1="15.054" gradientUnits="userSpaceOnUse" y1="19.832" gradientTransform="matrix(.75 0 0 -.75 0 28.5)" x2="15.054" y2="17.467"><stop id="stop4358" stop-color="#4cb649" offset="0"/><stop id="stop4360" stop-color="#78b280" offset="1"/></linearGradient><clipPath id="clipPath4370" clipPathUnits="userSpaceOnUse"><path id="path4372" d="m9.359 18.57h4.324v-0.508h-4.324v0.508z"/></clipPath><radialGradient id="radialGradient4376" cx="15.428" gradientUnits="userSpaceOnUse" cy="13.615" r="2.702" gradientTransform="matrix(.75 0 0 -.75 0 28.5)"><stop id="stop4378" offset="0"/><stop id="stop4380" stop-color="#030303" offset=".19"/><stop id="stop4382" stop-color="#0c0c0c" offset=".324"/><stop id="stop4384" stop-color="#1c1c1c" offset=".44"/><stop id="stop4386" stop-color="#323232" offset=".546"/><stop id="stop4388" stop-color="#4e4e4e" offset=".646"/><stop id="stop4390" stop-color="#717171" offset=".74"/><stop id="stop4392" stop-color="#9a9a9a" offset=".831"/><stop id="stop4394" stop-color="#c9c9c9" offset=".916"/><stop id="stop4396" stop-color="#fefefe" offset=".999"/><stop id="stop4398" stop-color="#fff" offset="1"/></radialGradient><clipPath id="clipPath4414" clipPathUnits="userSpaceOnUse"><path id="path4416" d="m21.379 6.664v0.133c-0.078-0.004-0.16-0.004-0.242-0.008h-1.567c-0.019-0.387-0.039-1.008-0.058-1.648h0.363c0.836 0.004 1.512 0.683 1.504 1.523z"/></clipPath><linearGradient id="linearGradient4420" x1="24.802" gradientUnits="userSpaceOnUse" y1="27.466" gradientTransform="matrix(.75 0 0 -.75 0 28.5)" x2="27.424" y2="30.213"><stop id="stop4422" stop-color="#23ff16" offset="0"/><stop id="stop4424" stop-color="#189a33" offset="1"/></linearGradient><clipPath id="clipPath4434" clipPathUnits="userSpaceOnUse"><path id="path4436" d="m1.629 6.781c-0.117 0-0.227 0.004-0.324 0.016v-0.137c0-0.84 0.672-1.519 1.504-1.519h0.492l-0.106 1.64h-1.566z"/></clipPath><linearGradient id="linearGradient4440" x1="6.38" gradientUnits="userSpaceOnUse" y1="26.369" gradientTransform="matrix(.75 0 0 -.75 0 28.5)" x2="2.385" y2="30.801"><stop id="stop4442" stop-color="#23ff16" offset="0"/><stop id="stop4444" stop-color="#189a33" offset="1"/></linearGradient></defs><metadata id="metadata4"><rdf:RDF><cc:Work rdf:about=""><dc:format>image/svg+xml</dc:format><dc:type rdf:resource="http://purl.org/dc/dcmitype/StillImage"/><dc:title/></cc:Work></rdf:RDF></metadata><g id="g6" transform="translate(0 -133)" display="none"><g id="g8" display="inline"><path id="path10" d="m376 133c-1.05 2.5 0.119 5.38 2.62 6.43-2.5-1.05-5.38 0.119-6.43 2.62 1.05-2.5-0.119-5.38-2.62-6.43 2.5 1.05 5.38-0.117 6.43-2.62z"/><path id="path12" d="m325 115c-1.05 2.5 0.119 5.38 2.62 6.43-2.5-1.05-5.38 0.118-6.43 2.61 1.05-2.5-0.117-5.38-2.62-6.43 2.5 1.05 5.38-0.118 6.43-2.62z"/><path id="path14" d="m286 118c-1.05 2.5 0.118 5.38 2.62 6.43-2.5-1.05-5.38 0.119-6.43 2.62 1.05-2.5-0.121-5.38-2.62-6.43 2.5 1.05 5.38-0.117 6.43-2.62z"/><path id="path16" d="m239 125c-1.06 2.5 0.116 5.38 2.62 6.43-2.5-1.05-5.38 0.118-6.43 2.62 1.05-2.5-0.119-5.38-2.62-6.43 2.5 1.05 5.38-0.118 6.43-2.62z"/><path id="path18" d="m221 156c-1.05 2.5 0.119 5.38 2.62 6.43-2.5-1.06-5.38 0.117-6.43 2.61 1.05-2.5-0.118-5.38-2.62-6.43 2.5 1.05 5.38-0.116 6.43-2.62z"/><path id="path20" d="m174 147c-1.05 2.5 0.119 5.38 2.62 6.43-2.5-1.05-5.38 0.118-6.43 2.62 1.05-2.5-0.121-5.38-2.62-6.43 2.5 1.05 5.38-0.117 6.43-2.62z"/><path id="path22" d="m172 107c-1.05 2.5 0.119 5.38 2.62 6.43-2.5-1.05-5.38 0.12-6.43 2.62 1.05-2.5-0.118-5.38-2.62-6.43 2.5 1.05 5.38-0.117 6.43-2.62z"/><path id="path24" d="m245 147-1.25 7c0.92-0.658 2.37-0.921 3.12-0.921 4.37 0 6.67 3.25 6.67 7.16 0 9.99-9.66 12-17 8.97l3.91-22.2h4.5zm-3.45 19.3c0.789 0.296 1.58 0.362 2.3 0.362 3.16-0.033 5.19-2.73 5.19-5.95 0-2.5-1.44-3.68-3.58-3.68-0.625 0-1.54 0.164-2.33 0.658l-1.58 8.61z"/><path id="path26" d="m261 171c-3.88 0.624-6.67-0.756-5.85-5.36l3.12-17.7h4.5l-3.12 17.7c-0.164 0.854 0.098 1.84 2 1.68l-0.656 3.68z"/><path id="path28" d="m263 163 1.71-9.63h4.5l-1.68 9.43c-0.592 3.32 2.53 4.47 5.85 3.45l2.27-12.9h4.5l-2.79 15.9c-6.31 2.33-15.8 1.97-14.4-6.31z"/><path id="path30" d="m295 168c-2.4 2.2-4.77 3.12-7.2 3.12-4.9 0-7.13-3.55-7.13-7.26 0-4.9 3.94-10.1 10.2-10.1 4.24-0.033 6.97 2.66 6.97 6.74 0 1.58-0.395 2.63-1.05 3.71h-11.7c-0.065 3.75 4.7 3.98 7.86 1.54l2.14 2.24zm-1.54-7.23c0.197-2.4-1.58-3.12-3.29-3.12-1.74 0-3.78 0.887-4.54 3.12h7.82z"/><g id="g32" fill="#58595b"><path id="path34" d="m310 165c0 3.65-3.88 5.39-6.54 5.39-1.97 0-3.71-0.821-4.67-2.4 0.395-0.328 0.888-0.756 1.22-1.05 1.51 2.76 7.23 2.66 8.25-1.38 0.296-1.87-1.81-2.83-3.25-3.12-2.46-0.428-4.57-1.78-4.11-4.5 0.854-4.9 7.76-6.11 10.4-3.16l-1.22 1.12c-1.84-2.17-7.53-1.31-7.53 2.37 0 1.68 1.77 2.4 3.06 2.66 2.27 0.492 4.4 1.68 4.4 4.08z"/><path id="path36" d="m311 175c1.87 0.066 2.76-0.592 3.52-1.94l1.41-2.53-3.88-16.7h1.84l3.25 15 8.25-15h1.84l-11.2 19.8c-1.22 2.24-2.89 2.79-4.77 2.79h-0.525l0.262-1.42z"/><path id="path38" d="m336 165c0 3.65-3.88 5.39-6.54 5.39-1.97 0-3.72-0.821-4.67-2.4 0.395-0.328 0.888-0.756 1.22-1.05 1.51 2.76 7.23 2.66 8.25-1.38 0.296-1.87-1.81-2.83-3.25-3.12-2.46-0.428-4.57-1.78-4.11-4.5 0.854-4.9 7.76-6.11 10.4-3.16l-1.22 1.12c-1.84-2.17-7.53-1.31-7.53 2.37 0 1.68 1.78 2.4 3.06 2.66 2.27 0.492 4.4 1.68 4.4 4.08z"/><path id="path40" d="m343 171c-2.93 0.133-4.83-1.41-4.24-4.67l1.87-10.7h-2.47l0.264-1.41h2.46l0.689-4.08 1.74-0.362-0.756 4.44h3.39l-0.264 1.41h-3.38l-1.87 10.7c-0.362 1.97 0.723 3.15 2.86 3.12l-0.295 1.54z"/><path id="path42" d="m358 167 1.12 0.888c-1.91 1.94-4.34 2.89-6.84 2.89-5.36 0-7.26-4.57-6.51-8.71 0.756-4.17 4.27-8.38 9.5-8.41 4.01-0.032 6.48 2.89 6.48 6.7 0 1.68-0.296 1.94-0.395 2.37h-14.1c-0.395 3.65 1.38 6.44 5.32 6.44 1.88 0 3.98-0.689 5.42-2.17zm2.14-5.72c0.461-3.58-1.68-5.98-5.13-6.05-3.88 0.033-6.48 2.7-7.53 6.05h12.7z"/><path id="path44" d="m376 157c1.94-2.93 4.21-3.39 6.41-3.39 3.58 0 6.15 1.94 5.26 7l-1.74 9.93h-1.71l1.74-9.93c0.689-3.88-1.28-5.46-3.81-5.46-2.6 0-5.19 1.18-5.92 5.13l-1.81 10.3h-1.64l1.81-10.3c1.18-5-4.64-6.15-8.71-4.64l-2.63 14.9h-1.71l2.83-16.1c3.68-1.41 10.6-1.71 11.6 2.53z"/><path id="path46" d="m400 165c0 3.65-3.88 5.39-6.54 5.39-1.97 0-3.71-0.822-4.67-2.4 0.393-0.328 0.887-0.756 1.22-1.05 1.51 2.76 7.23 2.66 8.25-1.38 0.297-1.87-1.81-2.83-3.25-3.12-2.46-0.427-4.57-1.77-4.11-4.5 0.854-4.9 7.76-6.11 10.4-3.16l-1.22 1.12c-1.84-2.17-7.53-1.31-7.53 2.37 0 1.68 1.78 2.4 3.06 2.66 2.27 0.493 4.4 1.68 4.4 4.08z"/></g></g><rect id="rect48" display="inline" width="28.3" y="10" x="539" height="28.3"/><rect id="rect50" height="28.3" width="28.3" y="40.3" x="539" display="inline" fill="#58595b"/></g><g id="g4336" transform="matrix(1.6321 0 0 -1.6321 -1.1229 99.411)"><g id="g4338"><g><path id="path4340" d="m20.266 17.508h-0.977v0.871c0 4.332-3.531 7.844-7.887 7.844-4.355 0-7.886-3.512-7.886-7.844v-0.871h-0.977c-1.019 0.004-1.848-0.824-1.851-1.844v-7.199c0.003-0.481 0.031-0.828 0.218-1.082 0.196-0.254 0.52-0.344 1.008-0.344h1.57l0.239-3.793v-0.043c0-0.098 0.011-0.328 0.136-0.551 0.125-0.222 0.391-0.422 0.817-0.418h3.984l2.07 2.196h1.547l2-2.266h3.578c0.305 0 0.586-0.004 0.833 0.148 0.242 0.161 0.39 0.461 0.46 0.989 0.102 0.761 0.125 2.855 0.172 3.738h1.571c0.48 0 0.797 0.047 1 0.266 0.199 0.222 0.222 0.543 0.226 1.023v7.336c-0.004 1.02-0.832 1.848-1.851 1.844z" fill="#349334"/><path id="path4342" d="m21.871 8.328c0-0.473-0.047-0.734-0.164-0.855-0.109-0.129-0.344-0.192-0.816-0.188h-1.801l-0.008-0.117c-0.043-0.832-0.074-3.055-0.176-3.836-0.07-0.5-0.199-0.715-0.351-0.812-0.153-0.102-0.387-0.11-0.7-0.11h-3.464l-2 2.266h-1.766l-2.07-2.196h-3.879c-0.356 0.004-0.504 0.137-0.602 0.297-0.07 0.133-0.105 0.278-0.105 0.43v0.043l-0.254 4.035h-1.801c-0.469 0-0.691 0.086-0.809 0.246-0.128 0.16-0.171 0.465-0.171 0.934v7.199c0.004 0.887 0.722 1.602 1.605 1.598h1.223v1.121c0.008 4.191 3.422 7.586 7.64 7.594 4.219-0.008 7.633-3.403 7.637-7.598v-1.117h1.227c0.882 0 1.601-0.715 1.605-1.598v-7.336z" fill="#4cb649"/><path id="path4344" d="m4 7.484h14.84v-0.484h-14.84v0.484zm-0.246-0.175v9.293h0.246v-9.293h-0.246zm15.086 0v9.293h0.25v-9.293h-0.25z" fill="#118011"/></g><g id="g4346"><g id="g4348" clip-path="url(#clipPath4350)"><g id="g4354"><path id="path4362" d="m16.605 14.598c0-0.539-2.378-0.973-5.316-0.973-2.934 0-5.312 0.434-5.312 0.973s2.378 0.972 5.312 0.972c2.938 0 5.316-0.433 5.316-0.972z" fill="url(#linearGradient4356)"/></g></g></g><path id="path4364" d="m16.254 17.09v1.422c0 6.461-9.695 6.461-9.695 0v-1.422h9.695z" fill="#fff"/><g id="g4366"><g id="g4368" clip-path="url(#clipPath4370)"><g id="g4374"><path id="path4400" d="m9.359 18.57h4.324v-0.508h-4.324v0.508z" fill="url(#radialGradient4376)"/></g></g></g><g><path id="path4402" d="m10.684 20.711c0-0.496-0.399-0.899-0.895-0.899s-0.894 0.403-0.894 0.899c0 0.492 0.398 0.894 0.894 0.894s0.895-0.402 0.895-0.894z"/><path id="path4404" d="m13.879 20.711c0-0.496-0.402-0.899-0.899-0.899-0.492 0-0.894 0.403-0.894 0.899 0 0.492 0.402 0.894 0.894 0.894 0.497 0 0.899-0.402 0.899-0.894z"/><path id="path4406" d="m9.664 11.688h3.254v-2.43h-3.254v2.43zm0.496 0.246c0.145 0.511 0.602 0.886 1.137 0.886s0.988-0.375 1.137-0.886h0.386c-0.156 0.714-0.773 1.257-1.523 1.257s-1.367-0.543-1.524-1.257h0.387z" fill="#fff"/><path id="path4408" d="m21.137 6.789c0.086 0.004 0.168 0.004 0.242 0.008v0.273c-0.16-0.023-0.324-0.035-0.488-0.031h-1.571c-0.023-0.437-0.039-1.176-0.062-1.898h0.254c0.019 0.64 0.035 1.261 0.058 1.648h1.567z" fill="#118011"/></g><g id="g4410"><g id="g4412" clip-path="url(#clipPath4414)"><g id="g4418"><path id="path4426" d="m21.379 6.664v0.133c-0.078-0.004-0.16-0.004-0.242-0.008h-1.567c-0.019-0.387-0.039-1.008-0.058-1.648h0.363c0.836 0.004 1.512 0.683 1.504 1.523z" fill="url(#linearGradient4420)"/></g></g></g><path id="path4428" d="m3.484 7.039h-1.57c-0.242 0-0.441 0.02-0.609 0.074v-0.316c0.097-0.008 0.207-0.016 0.324-0.016h1.57l0.102-1.64h0.304l-0.121 1.898z" fill="#118011"/><g id="g4430"><g id="g4432" clip-path="url(#clipPath4434)"><g id="g4438"><path id="path4446" d="m1.629 6.781c-0.117 0-0.227 0.004-0.324 0.016v-0.137c0-0.84 0.672-1.519 1.504-1.519h0.492l-0.106 1.64h-1.566z" fill="url(#linearGradient4440)"/></g></g></g><g><path id="path4448" d="m33.043 18.664c0-1.273-0.289-2.293-0.867-3.059-0.578-0.769-1.36-1.152-2.34-1.152-0.836 0-1.512 0.293-2.024 0.871v-3.894h-2.207v11.441h2.047l0.075-0.812c0.535 0.644 1.234 0.964 2.093 0.964 1.02 0 1.809-0.378 2.375-1.132 0.567-0.75 0.848-1.789 0.848-3.114v-0.113zm-2.207 0.168c0 0.77-0.137 1.363-0.41 1.785-0.27 0.418-0.668 0.625-1.188 0.625-0.691 0-1.168-0.265-1.426-0.797v-3.39c0.27-0.547 0.75-0.821 1.442-0.821 1.055 0 1.582 0.864 1.582 2.598zm8.449 1.969c-0.262 0.035-0.527 0.058-0.793 0.058-0.836 0-1.383-0.281-1.64-0.847v-5.407h-2.207v8.266h2.085l0.059-0.984c0.445 0.758 1.059 1.136 1.84 1.136 0.246 0 0.473-0.035 0.687-0.101l-0.031-2.121zm1.281 4.207c0 0.332 0.114 0.601 0.332 0.816 0.223 0.215 0.524 0.321 0.907 0.321 0.375 0 0.675-0.106 0.898-0.321 0.227-0.215 0.336-0.484 0.336-0.816 0-0.336-0.109-0.613-0.336-0.824-0.226-0.215-0.527-0.325-0.898-0.325s-0.672 0.11-0.899 0.325c-0.226 0.214-0.34 0.488-0.34 0.824zm2.344-10.403h-2.215v8.266h2.215v-8.266zm5.145 2.696 1.535 5.566h2.308l-2.789-8.262h-2.105l-2.789 8.266h2.308l1.532-5.57zm9.718-2.696c-0.109 0.235-0.187 0.485-0.218 0.743-0.535-0.594-1.231-0.895-2.086-0.895-0.809 0-1.481 0.235-2.012 0.703-0.531 0.469-0.797 1.059-0.797 1.774 0 0.875 0.324 1.547 0.973 2.015 0.648 0.469 1.586 0.703 2.812 0.711h1.016v0.473c0 0.383-0.098 0.687-0.293 0.918-0.195 0.226-0.508 0.34-0.93 0.34-0.371 0-0.66-0.086-0.875-0.266-0.211-0.18-0.316-0.422-0.316-0.73h-2.207c0 0.476 0.148 0.918 0.445 1.328 0.293 0.406 0.711 0.726 1.25 0.957 0.543 0.23 1.149 0.347 1.82 0.347 1.016 0 1.825-0.253 2.422-0.765 0.598-0.512 0.899-1.231 0.899-2.16v-3.578c0.004-0.786 0.113-1.379 0.328-1.782v-0.129h-2.231v-0.004zm-1.824 1.536c0.328 0 0.629 0.074 0.903 0.218 0.257 0.129 0.468 0.332 0.609 0.586v1.418h-0.824c-1.106 0-1.692-0.379-1.766-1.144l-0.004-0.129c0-0.278 0.094-0.504 0.289-0.68 0.192-0.18 0.457-0.269 0.793-0.269zm8.297 8.761v-2.031h1.414v-1.621h-1.414v-4.121c0-0.305 0.059-0.527 0.176-0.656 0.117-0.133 0.344-0.2 0.672-0.2 0.246 0 0.461 0.016 0.652 0.051v-1.672c-0.434-0.132-0.887-0.199-1.34-0.199-1.547 0-2.336 0.781-2.367 2.344v4.453h-1.203v1.621h1.203v2.031h2.207zm6.68-10.449c-1.211 0-2.196 0.371-2.957 1.117-0.762 0.742-1.141 1.731-1.141 2.969v0.215c0 0.828 0.16 1.57 0.481 2.226 0.32 0.653 0.773 1.157 1.363 1.512 0.586 0.356 1.258 0.531 2.012 0.531 1.128 0 2.019-0.359 2.668-1.07 0.648-0.711 0.972-1.723 0.972-3.031v-0.902h-5.258c0.071-0.54 0.286-0.973 0.645-1.297 0.359-0.325 0.812-0.489 1.363-0.489 0.848 0 1.512 0.309 1.992 0.922l1.082-1.211c-0.328-0.468-0.777-0.836-1.343-1.097-0.563-0.262-1.192-0.395-1.879-0.395zm-0.25 6.789c-0.438 0-0.793-0.148-1.067-0.445-0.269-0.293-0.445-0.719-0.523-1.274h3.07v0.176c-0.011 0.492-0.14 0.871-0.394 1.141-0.258 0.269-0.617 0.402-1.086 0.402zm5.426 4.012c-0.004 0.164 0.058 0.32 0.168 0.437 0.113 0.118 0.265 0.18 0.46 0.18 0.192 0 0.344-0.059 0.461-0.18 0.114-0.117 0.172-0.261 0.172-0.437 0-0.172-0.058-0.316-0.172-0.43-0.113-0.117-0.269-0.176-0.461-0.176-0.195 0-0.347 0.059-0.46 0.176-0.11 0.114-0.168 0.27-0.165 0.43h-0.003zm1.082-10.649h-0.918v8.266h0.918v-8.266zm3.582 8.266 0.031-1.414c0.312 0.508 0.699 0.898 1.164 1.164 0.465 0.27 0.996 0.406 1.531 0.402 0.887 0 1.547-0.25 1.981-0.75 0.429-0.496 0.652-1.246 0.656-2.242v-5.422h-0.91v5.426c-0.004 0.738-0.16 1.289-0.469 1.653-0.309 0.359-0.801 0.539-1.477 0.539-0.566 0-1.066-0.176-1.5-0.528-0.437-0.355-0.757-0.832-0.968-1.433v-5.657h-0.907v8.262h0.868zm9.375 2.113v-2.113h1.711v-0.75h-1.711v-5.512c0-0.457 0.086-0.8 0.25-1.023 0.164-0.227 0.441-0.336 0.828-0.336 0.152 0 0.402 0.023 0.742 0.074l0.039-0.742c-0.242-0.082-0.566-0.125-0.977-0.125-0.628 0-1.082 0.18-1.367 0.543-0.285 0.367-0.429 0.902-0.429 1.609v5.512h-1.52v0.75h1.52v2.113h0.914zm7.035-10.531c-0.699 0-1.336 0.176-1.903 0.52-0.57 0.347-1.011 0.828-1.324 1.449-0.316 0.617-0.472 1.312-0.472 2.078v0.332c0 0.793 0.152 1.508 0.461 2.145 0.308 0.636 0.734 1.136 1.285 1.5 0.527 0.355 1.148 0.546 1.785 0.546 1.004 0 1.801-0.343 2.387-1.027 0.589-0.687 0.882-1.621 0.882-2.808v-0.512h-5.894v-0.176c0-0.934 0.269-1.715 0.805-2.34 0.539-0.621 1.214-0.933 2.027-0.933 0.488 0 0.922 0.089 1.297 0.265 0.371 0.18 0.711 0.465 1.019 0.856l0.571-0.434c-0.661-0.973-1.633-1.461-2.918-1.461h-0.008zm-0.164 7.789c-0.688 0-1.266-0.25-1.735-0.754-0.472-0.504-0.757-1.183-0.859-2.031h4.953v0.098c-0.023 0.797-0.25 1.441-0.68 1.941-0.418 0.496-0.98 0.746-1.671 0.746h-0.008zm9.097-0.152c-0.203 0.035-0.41 0.055-0.617 0.055-0.57 0-1.054-0.161-1.449-0.477-0.395-0.32-0.676-0.781-0.844-1.387v-5.676h-0.91v8.266h0.895l0.015-1.316c0.485 0.98 1.262 1.468 2.328 1.468 0.254 0 0.457-0.035 0.606-0.101l-0.016-0.832h-0.008zm2.551 0.781 0.031-1.414c0.309 0.508 0.696 0.898 1.161 1.164 0.464 0.27 0.996 0.406 1.535 0.402 0.886 0 1.543-0.25 1.976-0.75 0.434-0.496 0.653-1.246 0.657-2.242v-5.422h-0.907v5.426c-0.008 0.738-0.164 1.289-0.472 1.653-0.305 0.359-0.797 0.539-1.477 0.539-0.562 0-1.062-0.176-1.5-0.528-0.434-0.355-0.758-0.832-0.965-1.433v-5.657h-0.91v8.262h0.871zm11.152-8.418c-0.703 0-1.335 0.176-1.906 0.52-0.566 0.347-1.008 0.828-1.324 1.449-0.316 0.617-0.473 1.312-0.473 2.078v0.332c0 0.793 0.153 1.508 0.461 2.145 0.309 0.636 0.739 1.136 1.289 1.5 0.528 0.355 1.149 0.546 1.786 0.546 1.003 0 1.796-0.343 2.386-1.027 0.586-0.687 0.883-1.621 0.883-2.808v-0.512h-5.894v-0.176c0-0.934 0.265-1.715 0.804-2.34 0.535-0.621 1.211-0.933 2.028-0.933 0.488 0 0.918 0.089 1.293 0.265 0.375 0.18 0.714 0.465 1.019 0.856l0.574-0.434c-0.66-0.973-1.636-1.461-2.918-1.461h-0.008zm-0.164 7.789c-0.687 0-1.265-0.25-1.738-0.754-0.469-0.504-0.758-1.183-0.859-2.031h4.957v0.098c-0.028 0.797-0.254 1.441-0.68 1.941-0.418 0.496-0.98 0.746-1.672 0.746h-0.008zm6.696 2.742v-2.113h1.711v-0.75h-1.711v-5.512c0-0.457 0.082-0.8 0.25-1.023 0.164-0.227 0.441-0.336 0.828-0.336 0.152 0 0.398 0.023 0.742 0.074l0.039-0.742c-0.242-0.082-0.566-0.125-0.98-0.125-0.625 0-1.082 0.18-1.364 0.543-0.285 0.367-0.429 0.902-0.429 1.609v5.512h-1.52v0.75h1.52v2.113h0.914zm9.062-10.379c-0.094 0.262-0.152 0.645-0.176 1.153-0.324-0.418-0.746-0.75-1.226-0.965-0.496-0.227-1.031-0.34-1.578-0.34-0.793 0-1.434 0.223-1.926 0.664-0.492 0.445-0.738 1.004-0.738 1.68 0 0.805 0.336 1.441 1.004 1.91 0.672 0.469 1.601 0.703 2.8 0.703h1.657v0.938c0 0.59-0.184 1.054-0.547 1.394-0.364 0.34-0.895 0.508-1.594 0.508-0.637 0-1.16-0.164-1.578-0.488-0.418-0.328-0.629-0.719-0.629-1.176l-0.914 0.008c0 0.656 0.305 1.222 0.914 1.707 0.613 0.48 1.363 0.719 2.254 0.719 0.922 0 1.648-0.231 2.18-0.692 0.531-0.461 0.808-1.101 0.82-1.926v-3.91c0-0.801 0.086-1.398 0.254-1.797v-0.09h-0.992 0.015zm-2.875 0.661c0.614 0 1.16 0.144 1.641 0.441 0.465 0.277 0.828 0.691 1.047 1.184v1.816h-1.633c-0.91-0.008-1.625-0.176-2.137-0.5-0.515-0.324-0.773-0.766-0.773-1.332 0-0.465 0.172-0.848 0.515-1.152 0.348-0.305 0.797-0.457 1.344-0.457h-0.004zm9.324-0.039c0.637 0 1.168 0.179 1.598 0.539 0.434 0.359 0.664 0.82 0.699 1.39h0.879c-0.023-0.504-0.183-0.961-0.472-1.379-0.289-0.414-0.676-0.738-1.157-0.972-0.48-0.235-1.011-0.352-1.547-0.352-1.085 0-1.941 0.379-2.578 1.133-0.632 0.754-0.949 1.766-0.949 3.039v0.273c0 0.817 0.141 1.536 0.426 2.161 0.285 0.629 0.695 1.113 1.226 1.453 0.532 0.34 1.157 0.511 1.868 0.511 0.906 0 1.652-0.269 2.242-0.812 0.586-0.539 0.902-1.246 0.941-2.129h-0.879c-0.039 0.645-0.273 1.168-0.699 1.566-0.426 0.395-0.961 0.594-1.605 0.594-0.825 0-1.465-0.297-1.922-0.894-0.453-0.594-0.684-1.43-0.684-2.504v-0.266c0-1.055 0.231-1.875 0.684-2.469 0.449-0.589 1.094-0.882 1.926-0.882h0.003zm8.286 0c0.636 0 1.171 0.179 1.601 0.539 0.43 0.359 0.664 0.82 0.699 1.39h0.879c-0.027-0.504-0.183-0.961-0.472-1.379-0.293-0.414-0.676-0.738-1.157-0.972-0.484-0.235-1.011-0.352-1.546-0.352-1.086 0-1.946 0.379-2.579 1.133-0.632 0.754-0.949 1.766-0.949 3.039v0.273c0 0.817 0.141 1.536 0.426 2.161 0.285 0.629 0.695 1.113 1.227 1.453 0.531 0.34 1.152 0.511 1.867 0.511 0.902 0 1.652-0.269 2.238-0.812 0.59-0.539 0.902-1.246 0.945-2.129h-0.879c-0.043 0.645-0.273 1.168-0.699 1.566-0.426 0.395-0.961 0.594-1.609 0.594-0.824 0-1.465-0.297-1.918-0.894-0.457-0.594-0.684-1.43-0.684-2.504v-0.266c0-1.055 0.227-1.875 0.684-2.469 0.457-0.589 1.094-0.882 1.926-0.882zm8.437-0.774c-0.699 0-1.336 0.176-1.902 0.52-0.571 0.347-1.012 0.828-1.324 1.449-0.317 0.617-0.473 1.312-0.473 2.078v0.332c0 0.793 0.152 1.508 0.461 2.145 0.308 0.636 0.734 1.136 1.285 1.5 0.527 0.355 1.148 0.546 1.785 0.546 1.004 0 1.801-0.343 2.387-1.027 0.59-0.687 0.883-1.621 0.883-2.808v-0.512h-5.895v-0.176c0-0.934 0.27-1.715 0.805-2.34 0.539-0.621 1.215-0.933 2.027-0.933 0.488 0 0.922 0.089 1.297 0.265 0.371 0.18 0.711 0.465 1.02 0.856l0.57-0.434c-0.676-0.973-1.649-1.461-2.926-1.461zm-0.164 7.789c-0.687 0-1.266-0.25-1.734-0.754-0.473-0.504-0.758-1.183-0.86-2.031h4.953v0.098c-0.023 0.797-0.25 1.441-0.675 1.941-0.438 0.496-0.993 0.746-1.684 0.746zm10.231-5.535c0 0.453-0.184 0.816-0.547 1.094-0.364 0.273-0.91 0.488-1.645 0.644-0.73 0.153-1.301 0.332-1.707 0.535-0.402 0.2-0.703 0.446-0.898 0.735-0.2 0.289-0.297 0.64-0.297 1.055 0 0.652 0.273 1.191 0.816 1.613 0.547 0.426 1.242 0.64 2.094 0.64 0.922 0 1.66-0.23 2.219-0.683 0.558-0.457 0.836-1.051 0.836-1.785h-0.918c0 0.484-0.2 0.886-0.606 1.207-0.406 0.32-0.914 0.48-1.531 0.48-0.602 0-1.082-0.133-1.445-0.402-0.364-0.266-0.547-0.613-0.547-1.039 0-0.414 0.152-0.735 0.453-0.961 0.305-0.227 0.855-0.434 1.656-0.621 0.805-0.188 1.402-0.391 1.805-0.606 0.398-0.211 0.695-0.468 0.887-0.769 0.195-0.301 0.292-0.664 0.292-1.09 0-0.699-0.281-1.258-0.843-1.676-0.563-0.418-1.297-0.625-2.203-0.625-0.961 0-1.743 0.235-2.34 0.699-0.598 0.465-0.899 1.055-0.899 1.766h0.918c0.035-0.535 0.262-0.949 0.676-1.246 0.414-0.301 0.965-0.449 1.645-0.449 0.636 0 1.152 0.14 1.543 0.422 0.39 0.281 0.593 0.636 0.593 1.062h-0.007zm8.152 0c0 0.453-0.18 0.816-0.547 1.094-0.363 0.273-0.91 0.488-1.645 0.644-0.73 0.153-1.3 0.332-1.707 0.535-0.402 0.2-0.703 0.446-0.898 0.735-0.199 0.289-0.297 0.64-0.297 1.055 0 0.652 0.274 1.191 0.817 1.613 0.546 0.426 1.242 0.64 2.093 0.64 0.922 0 1.66-0.23 2.219-0.683 0.559-0.457 0.836-1.051 0.836-1.785h-0.918c0 0.484-0.199 0.886-0.605 1.207-0.407 0.32-0.915 0.48-1.532 0.48-0.601 0-1.082-0.133-1.445-0.402-0.363-0.266-0.547-0.613-0.547-1.039 0-0.414 0.152-0.735 0.453-0.961 0.305-0.227 0.856-0.434 1.656-0.621 0.805-0.188 1.403-0.391 1.805-0.606 0.399-0.211 0.695-0.468 0.887-0.769 0.195-0.301 0.293-0.664 0.293-1.09 0-0.699-0.281-1.258-0.844-1.676-0.562-0.418-1.297-0.625-2.203-0.625-0.961 0-1.742 0.235-2.34 0.699-0.598 0.465-0.898 1.055-0.898 1.766h0.918c0.035-0.535 0.261-0.949 0.675-1.246 0.415-0.301 0.965-0.449 1.645-0.449 0.637 0 1.152 0.14 1.543 0.422 0.383 0.281 0.586 0.636 0.586 1.062z"/><path id="path4450" d="m91.934 4.145c-0.047 0.093-0.082 0.257-0.11 0.496-0.375-0.391-0.82-0.582-1.336-0.582-0.465 0-0.843 0.129-1.14 0.39-0.289 0.25-0.453 0.613-0.446 0.996 0 0.489 0.188 0.867 0.559 1.137s0.894 0.406 1.566 0.406h0.782v0.371c0 0.278-0.082 0.5-0.25 0.668s-0.414 0.25-0.743 0.25c-0.285 0-0.527-0.074-0.718-0.218-0.196-0.145-0.293-0.317-0.293-0.524h-0.805c0 0.235 0.082 0.461 0.25 0.68 0.164 0.219 0.391 0.39 0.676 0.515 0.297 0.129 0.617 0.196 0.937 0.192 0.543 0 0.965-0.133 1.274-0.406 0.304-0.27 0.465-0.641 0.476-1.114v-2.16c0-0.433 0.055-0.773 0.164-1.027v-0.07h-0.843zm-1.332 0.609c0.25 0 0.488 0.066 0.714 0.195 0.227 0.133 0.387 0.301 0.489 0.508v0.965h-0.629c-0.981 0-1.473-0.289-1.473-0.863 0-0.254 0.082-0.45 0.25-0.59 0.18-0.141 0.391-0.215 0.652-0.215h-0.003zm4.273-0.609h-0.801v6.66h0.801v-6.66zm5.602 1.105 0.902 3.586h0.801l-1.364-4.691h-0.652l-1.141 3.554-1.109-3.554h-0.648l-1.364 4.691h0.801l0.922-3.512 1.094 3.512h0.644l1.125-3.586h-0.011zm5.476-1.105c-0.047 0.093-0.086 0.257-0.113 0.496-0.371-0.391-0.817-0.582-1.336-0.582-0.461 0-0.84 0.129-1.137 0.39-0.293 0.25-0.453 0.613-0.445 0.996 0 0.489 0.187 0.867 0.558 1.137 0.372 0.27 0.891 0.406 1.567 0.406h0.781v0.371c0 0.278-0.086 0.5-0.254 0.668s-0.414 0.25-0.738 0.25c-0.289 0-0.527-0.074-0.723-0.218-0.191-0.145-0.289-0.317-0.289-0.524h-0.804c0 0.235 0.082 0.461 0.246 0.68 0.168 0.219 0.394 0.39 0.675 0.515 0.297 0.129 0.618 0.196 0.942 0.192 0.539 0 0.965-0.133 1.269-0.406 0.305-0.27 0.465-0.641 0.477-1.114v-2.16c0-0.433 0.055-0.773 0.164-1.027v-0.07h-0.84zm-1.336 0.609c0.25 0 0.488 0.066 0.715 0.195 0.227 0.133 0.391 0.301 0.492 0.508v0.965h-0.629c-0.984 0-1.476-0.289-1.476-0.863 0-0.254 0.086-0.45 0.254-0.59 0.172-0.141 0.39-0.215 0.652-0.215h-0.008zm4.844 0.566 1.094 3.516h0.859l-1.887-5.414c-0.29-0.781-0.75-1.172-1.39-1.172l-0.153 0.012-0.296 0.058v0.649l0.214-0.016c0.274 0 0.485 0.055 0.637 0.164 0.153 0.11 0.277 0.309 0.375 0.602l0.176 0.476-1.672 4.641h0.875l1.164-3.516h0.008zm5.492 0.071c0.008 0.195-0.086 0.386-0.246 0.504-0.164 0.121-0.449 0.222-0.855 0.308-0.407 0.086-0.727 0.192-0.965 0.313-0.239 0.121-0.414 0.265-0.528 0.433-0.117 0.176-0.179 0.387-0.171 0.598 0 0.387 0.16 0.711 0.488 0.976 0.324 0.266 0.738 0.399 1.246 0.399 0.531 0 0.961-0.137 1.293-0.41 0.332-0.278 0.496-0.629 0.496-1.055h-0.805c0 0.219-0.094 0.41-0.281 0.566-0.187 0.161-0.422 0.239-0.703 0.239-0.293 0-0.524-0.063-0.688-0.192-0.156-0.113-0.25-0.3-0.246-0.496 0-0.195 0.078-0.34 0.231-0.437 0.152-0.098 0.429-0.192 0.828-0.282 0.402-0.089 0.726-0.199 0.976-0.32 0.247-0.125 0.43-0.277 0.551-0.449 0.121-0.176 0.18-0.391 0.18-0.641 0-0.418-0.168-0.754-0.5-1.007-0.336-0.254-0.774-0.379-1.305-0.379-0.379 0-0.711 0.066-1 0.199-0.273 0.121-0.508 0.312-0.679 0.558-0.157 0.227-0.243 0.496-0.243 0.774h0.801c0.016-0.27 0.121-0.485 0.324-0.641 0.2-0.16 0.465-0.234 0.793-0.234 0.305 0 0.547 0.058 0.731 0.183 0.187 0.122 0.277 0.286 0.277 0.493zm7.438-0.782c-0.309-0.367-0.77-0.55-1.371-0.55-0.504 0-0.883 0.144-1.145 0.433-0.262 0.293-0.395 0.723-0.395 1.293v3.051h0.801v-3.031c0-0.711 0.289-1.067 0.867-1.067 0.614 0 1.02 0.231 1.223 0.688v3.41h0.801v-4.691h-0.762l-0.023 0.464h0.004zm4.882 0.782c0.012 0.195-0.082 0.386-0.242 0.504-0.164 0.121-0.449 0.222-0.855 0.308s-0.731 0.192-0.969 0.313-0.414 0.265-0.527 0.433c-0.118 0.176-0.176 0.387-0.172 0.598 0 0.387 0.164 0.711 0.488 0.976 0.324 0.266 0.742 0.399 1.246 0.399 0.531 0 0.965-0.137 1.297-0.41 0.328-0.278 0.496-0.629 0.496-1.055h-0.808c0 0.219-0.094 0.41-0.278 0.566-0.187 0.161-0.422 0.239-0.707 0.239-0.289 0-0.519-0.063-0.683-0.192-0.161-0.113-0.25-0.3-0.247-0.496 0-0.195 0.075-0.34 0.227-0.437 0.156-0.098 0.434-0.192 0.832-0.282 0.402-0.089 0.727-0.199 0.973-0.32 0.25-0.125 0.433-0.277 0.554-0.449 0.118-0.176 0.18-0.391 0.18-0.641 0-0.418-0.168-0.754-0.504-1.007-0.336-0.254-0.769-0.379-1.304-0.379-0.375 0-0.708 0.066-0.997 0.199-0.273 0.121-0.507 0.312-0.679 0.558-0.16 0.227-0.246 0.496-0.246 0.774h0.804c0.012-0.27 0.121-0.485 0.321-0.641 0.203-0.16 0.468-0.234 0.797-0.234 0.3 0 0.546 0.058 0.73 0.183 0.18 0.122 0.27 0.286 0.27 0.493h0.003zm3.938-1.332c-0.633 0-1.152 0.207-1.551 0.625-0.398 0.418-0.598 0.976-0.598 1.675v0.149c0 0.465 0.09 0.879 0.266 1.246 0.164 0.348 0.422 0.644 0.746 0.859 0.309 0.203 0.668 0.309 1.039 0.309 0.61 0 1.082-0.203 1.422-0.602 0.336-0.402 0.508-0.98 0.508-1.726v-0.336h-3.18c0.012-0.461 0.149-0.836 0.407-1.121 0.257-0.285 0.585-0.426 0.984-0.426 0.285 0 0.523 0.059 0.719 0.172 0.199 0.117 0.371 0.269 0.519 0.461l0.488-0.383c-0.39-0.602-0.976-0.902-1.761-0.902h-0.008zm-0.102 4.203c-0.324 0-0.597-0.117-0.816-0.352-0.219-0.234-0.355-0.566-0.41-0.992h2.351v0.062c-0.023 0.407-0.132 0.723-0.328 0.946-0.187 0.226-0.461 0.336-0.797 0.336zm9.516-1.824c0-0.715-0.164-1.29-0.488-1.727-0.328-0.434-0.77-0.652-1.328-0.652-0.571 0-1.02 0.179-1.344 0.539v-2.258h-0.801v6.496h0.731l0.039-0.52c0.328 0.403 0.781 0.606 1.363 0.606 0.562 0 1.008-0.211 1.336-0.637s0.492-1.015 0.492-1.773v-0.074zm-0.801 0.089c0 0.532-0.113 0.95-0.34 1.254-0.226 0.309-0.535 0.461-0.929 0.461-0.485 0-0.848-0.215-1.09-0.648v-2.239c0.238-0.429 0.605-0.64 1.101-0.64 0.383 0 0.688 0.152 0.918 0.457 0.231 0.305 0.344 0.758 0.344 1.355h-0.004zm4.297 1.59c-0.133 0.02-0.262 0.031-0.394 0.031-0.528 0-0.883-0.226-1.071-0.675v-3.328h-0.804v4.691h0.781l0.012-0.543c0.265 0.418 0.636 0.629 1.121 0.629 0.156 0 0.273-0.02 0.355-0.059v-0.746zm0.676-1.582c0 0.457 0.09 0.871 0.269 1.238 0.18 0.368 0.43 0.653 0.754 0.852 0.325 0.199 0.692 0.297 1.102 0.297 0.64 0 1.156-0.223 1.551-0.664 0.394-0.442 0.593-1.031 0.593-1.762v-0.058c0-0.458-0.089-0.868-0.265-1.231-0.172-0.359-0.422-0.645-0.75-0.848-0.324-0.199-0.696-0.3-1.117-0.3-0.637 0-1.153 0.218-1.547 0.66-0.395 0.445-0.594 1.027-0.594 1.758v0.058h0.004zm0.801-0.097c0-0.52 0.121-0.938 0.363-1.254 0.238-0.313 0.562-0.473 0.969-0.473 0.406 0 0.73 0.16 0.968 0.48 0.243 0.321 0.364 0.766 0.364 1.344 0 0.512-0.125 0.93-0.367 1.25-0.227 0.309-0.59 0.488-0.973 0.477-0.399 0-0.719-0.157-0.961-0.473-0.238-0.312-0.359-0.766-0.359-1.351h-0.004zm5.722 3.535v-1.137h0.875v-0.621h-0.875v-2.914c0-0.188 0.039-0.328 0.118-0.422 0.078-0.094 0.21-0.141 0.398-0.141 0.094 0 0.219 0.016 0.383 0.051v-0.644c-0.203-0.055-0.41-0.086-0.617-0.086-0.36 0-0.629 0.109-0.809 0.324-0.184 0.215-0.273 0.523-0.273 0.922v2.91h-0.856v0.621h0.856v1.137h0.8zm3.793-5.914c-0.633 0-1.152 0.207-1.551 0.625-0.398 0.418-0.597 0.976-0.597 1.675v0.149c0 0.465 0.09 0.879 0.265 1.246 0.165 0.348 0.422 0.644 0.747 0.859 0.308 0.203 0.668 0.309 1.039 0.309 0.609 0 1.082-0.203 1.422-0.602 0.339-0.402 0.507-0.98 0.507-1.726v-0.336h-3.179c0.011-0.461 0.148-0.836 0.406-1.121s0.586-0.426 0.984-0.426c0.285 0 0.524 0.059 0.723 0.172 0.195 0.117 0.367 0.269 0.516 0.461l0.488-0.383c-0.399-0.602-0.985-0.902-1.77-0.902zm-0.101 4.203c-0.324 0-0.598-0.117-0.817-0.352-0.218-0.234-0.355-0.566-0.41-0.992h2.352v0.062c-0.024 0.407-0.133 0.723-0.328 0.946-0.188 0.226-0.457 0.336-0.797 0.336zm4.976-3.547c0.289 0 0.539 0.086 0.75 0.258 0.215 0.175 0.332 0.39 0.356 0.652h0.761c-0.015-0.27-0.109-0.527-0.277-0.77-0.176-0.246-0.41-0.445-0.683-0.578-0.286-0.144-0.586-0.218-0.907-0.218-0.636 0-1.144 0.214-1.523 0.64-0.375 0.426-0.567 1.008-0.567 1.75v0.133c0 0.457 0.086 0.863 0.254 1.219 0.168 0.355 0.407 0.633 0.719 0.828 0.317 0.195 0.688 0.293 1.113 0.293 0.528 0 0.965-0.156 1.313-0.473 0.348-0.312 0.535-0.722 0.558-1.226h-0.761c-0.012 0.285-0.137 0.554-0.344 0.75-0.207 0.195-0.48 0.3-0.766 0.293-0.406 0-0.722-0.149-0.945-0.442-0.227-0.293-0.336-0.719-0.336-1.273v-0.149c0-0.543 0.109-0.957 0.332-1.25 0.211-0.293 0.531-0.437 0.945-0.437h0.008zm4.172 5.258v-1.137h0.875v-0.621h-0.875v-2.914c0-0.188 0.039-0.328 0.117-0.422s0.211-0.141 0.399-0.141c0.094 0 0.219 0.016 0.383 0.051v-0.644c-0.204-0.055-0.411-0.086-0.618-0.086-0.359 0-0.629 0.109-0.808 0.324-0.184 0.215-0.274 0.523-0.274 0.922v2.91h-0.855v0.621h0.855v1.137h0.801zm1.914 0.105c0 0.133 0.039 0.242 0.117 0.332 0.079 0.09 0.2 0.133 0.356 0.133 0.152 0 0.273-0.043 0.355-0.133 0.078-0.09 0.121-0.199 0.121-0.332 0-0.129-0.043-0.238-0.121-0.324-0.082-0.086-0.203-0.129-0.355-0.129-0.156 0-0.277 0.043-0.356 0.129-0.082 0.09-0.125 0.207-0.121 0.324h0.004zm0.86-5.933h-0.801v4.691h0.801v-4.691zm1.23 2.39c0 0.457 0.09 0.871 0.274 1.238 0.179 0.368 0.429 0.653 0.753 0.852 0.321 0.199 0.688 0.297 1.102 0.297 0.641 0 1.156-0.223 1.551-0.664 0.394-0.442 0.59-1.031 0.59-1.762v-0.058c0-0.458-0.086-0.868-0.262-1.231-0.176-0.359-0.426-0.645-0.75-0.848-0.324-0.199-0.699-0.3-1.121-0.3-0.637 0-1.149 0.218-1.543 0.66-0.395 0.445-0.594 1.027-0.594 1.758v0.058zm0.805-0.097c0-0.52 0.121-0.938 0.359-1.254 0.242-0.313 0.567-0.473 0.969-0.473 0.41 0 0.734 0.16 0.973 0.48 0.242 0.321 0.359 0.766 0.359 1.344 0 0.512-0.121 0.93-0.363 1.25-0.227 0.309-0.59 0.488-0.977 0.477-0.394 0-0.715-0.157-0.957-0.473-0.238-0.312-0.359-0.766-0.359-1.351h-0.004zm5.422 2.398 0.027-0.59c0.355 0.449 0.824 0.676 1.402 0.676 0.992 0 1.492-0.559 1.5-1.676v-3.101h-0.8v3.105c-0.004 0.336-0.082 0.586-0.231 0.75-0.152 0.16-0.391 0.242-0.711 0.242-0.242 0.004-0.484-0.066-0.683-0.207-0.2-0.14-0.356-0.328-0.461-0.547v-3.343h-0.801v4.691h0.758z" fill="#4e4e4f"/><path id="path4452" d="m182.06 24.992h-0.57v-0.98h-0.32v2.426h0.805c0.269 0 0.48-0.063 0.628-0.188 0.145-0.125 0.219-0.305 0.219-0.543 0.004-0.141-0.039-0.277-0.121-0.395-0.086-0.113-0.207-0.203-0.34-0.25l0.567-1.027v-0.019h-0.34l-0.528 0.976zm-0.57 0.262h0.492c0.157 0 0.286 0.043 0.379 0.125 0.094 0.082 0.145 0.203 0.141 0.328 0 0.152-0.047 0.266-0.137 0.348-0.09 0.078-0.219 0.117-0.387 0.121h-0.488v-0.922z"/><path id="path4454" d="m181.94 22.629c-1.41 0-2.558 1.148-2.558 2.559 0 1.414 1.148 2.562 2.558 2.562 1.411 0 2.559-1.148 2.559-2.559 0-1.414-1.148-2.562-2.559-2.562zm0 4.742c-1.203 0-2.179-0.98-2.179-2.183 0-1.204 0.976-2.18 2.179-2.18 1.204 0 2.184 0.976 2.184 2.18 0 1.203-0.984 2.183-2.184 2.183z"/><path id="path4456" d="m180.52 10.844h-0.476v-0.824h-0.27v2.039h0.672c0.231 0 0.406-0.055 0.531-0.161 0.122-0.101 0.184-0.253 0.184-0.453 0.004-0.117-0.031-0.234-0.102-0.332-0.07-0.097-0.171-0.172-0.285-0.211l0.477-0.863v-0.016h-0.285l-0.453 0.821h0.007zm-0.476 0.218h0.41c0.117-0.003 0.231 0.032 0.32 0.106 0.078 0.07 0.121 0.172 0.118 0.277 0 0.125-0.04 0.223-0.114 0.289-0.074 0.071-0.183 0.102-0.324 0.102h-0.41v-0.774z" fill="#4e4e4f"/><path id="path4458" d="m180.42 8.855c-1.188 0-2.156 0.965-2.156 2.153 0 1.187 0.968 2.152 2.156 2.152 1.183 0 2.152-0.965 2.152-2.152 0-1.188-0.969-2.153-2.152-2.153zm0 3.989c-1.012 0-1.836-0.824-1.836-1.832 0-1.012 0.824-1.836 1.836-1.836 1.008 0 1.832 0.824 1.832 1.836 0.004 1.011-0.816 1.832-1.832 1.832z" fill="#4e4e4f"/></g></g></g></svg>
